-
<img src="./img/banqueD/145.jpg">
<img src="./img/banqueD/146.jpg">
<img src="./img/banqueD/147.jpg">
<img src="./img/banqueD/148.jpg">
<img src="./img/banqueD/149.jpg">
<img src="./img/banqueD/150.jpg">
<img src="./img/banqueD/151.jpg">
<img src="./img/banqueD/152.jpg">
<img src="./img/banqueD/153.jpg">
<img src="./img/banqueD/154.jpg">
<img src="./img/banqueD/155.jpg">
<img src="./img/banqueD/156.jpg">
<img src="./img/banqueD/157.jpg">
<img src="./img/banqueD/158.jpg">
<img src="./img/banqueD/159.jpg">
<img src="./img/banqueD/160.jpg">
<img src="./img/banqueD/161.jpg">
<img src="./img/banqueD/162.jpg">
<img src="./img/banqueD/163.jpg">
<img src="./img/banqueD/164.jpg">
<img src="./img/banqueD/165.jpg">
<img src="./img/banqueD/166.jpg">
<img src="./img/banqueD/167.jpg">
<img src="./img/banqueD/168.jpg">
<img src="./img/banqueD/169.jpg">
<img src="./img/banqueD/170.jpg">
<img src="./img/banqueD/171.jpg">
<img src="./img/banqueD/172.jpg">
<img src="./img/banqueD/173.jpg">
<img src="./img/banqueD/174.jpg">
<img src="./img/banqueD/175.jpg">
<img src="./img/banqueD/176.jpg">
<img src="./img/banqueD/177.jpg">
<img src="./img/banqueD/178.jpg">
<img src="./img/banqueD/179.jpg">
<img src="./img/banqueD/180.jpg">
<img src="./img/banqueD/181.jpg">
<img src="./img/banqueD/182.jpg">
<img src="./img/banqueD/183.jpg">
<img src="./img/banqueD/184.jpg">
<img src="./img/banqueD/185.jpg">
<img src="./img/banqueD/186.jpg">
<img src="./img/banqueD/187.jpg">
<img src="./img/banqueD/188.jpg">
<img src="./img/banqueD/189.jpg">
<img src="./img/banqueD/190.jpg">
<img src="./img/banqueD/191.jpg">
<img src="./img/banqueD/192.jpg">
<img src="./img/banqueD/193.jpg">
<img src="./img/banqueD/194.jpg">
<img src="./img/banqueD/195.jpg">
<img src="./img/banqueD/196.jpg">
<img src="./img/banqueD/197.jpg">
<img src="./img/banqueD/198.jpg">
<img src="./img/banqueD/199.jpg">
<img src="./img/banqueD/200.jpg">
<img src="./img/banqueD/201.jpg">
<img src="./img/banqueD/202.jpg">
<img src="./img/banqueD/203.jpg">
<img src="./img/banqueD/204.jpg">
<img src="./img/banqueD/205.jpg">
<img src="./img/banqueD/206.jpg">
<img src="./img/banqueD/207.jpg">
<img src="./img/banqueD/208.jpg">
<img src="./img/banqueD/209.jpg">
<img src="./img/banqueD/210.jpg">
<img src="./img/banqueD/211.jpg">
<img src="./img/banqueD/212.jpg">
<img src="./img/banqueD/213.jpg">
<img src="./img/banqueD/214.jpg">
<img src="./img/banqueD/215.jpg">
<img src="./img/banqueD/216.jpg">
<img src="./img/banqueD/217.jpg">
<img src="./img/banqueD/218.jpg">
<img src="./img/banqueD/219.jpg">
<img src="./img/banqueD/220.jpg">
<img src="./img/banqueD/221.jpg">
<img src="./img/banqueD/222.jpg">
<img src="./img/banqueD/223.jpg">
<img src="./img/banqueD/224.jpg">
<img src="./img/banqueD/225.jpg">
<img src="./img/banqueD/226.jpg">
<img src="./img/banqueD/227.jpg">
<img src="./img/banqueD/228.jpg">
<img src="./img/banqueD/229.jpg">
<img src="./img/banqueD/230.jpg">
<img src="./img/banqueD/231.jpg">
<img src="./img/banqueD/232.jpg">
<img src="./img/banqueD/233.jpg">
<img src="./img/banqueD/234.jpg">
<img src="./img/banqueD/235.jpg">
<img src="./img/banqueD/236.jpg">
<img src="./img/banqueD/237.jpg">
<img src="./img/banqueD/238.jpg">
<img src="./img/banqueD/239.jpg">
<img src="./img/banqueD/240.jpg">
<img src="./img/banqueD/241.jpg">
<img src="./img/banqueD/242.jpg">
<img src="./img/banqueD/243.jpg">
<img src="./img/banqueD/244.jpg">
<img src="./img/banqueD/245.jpg">
<img src="./img/banqueD/246.jpg">
<img src="./img/banqueD/247.jpg">
<img src="./img/banqueD/248.jpg">
<img src="./img/banqueD/249.jpg">
<img src="./img/banqueD/250.jpg">
<img src="./img/banqueD/251.jpg">
<img src="./img/banqueD/252.jpg">
<img src="./img/banqueD/253.jpg">
<img src="./img/banqueD/254.jpg">
<img src="./img/banqueD/255.jpg">
<img src="./img/banqueD/256.jpg">
<img src="./img/banqueD/257.jpg">
<img src="./img/banqueD/258.jpg">
<img src="./img/banqueD/259.jpg">
<img src="./img/banqueD/260.jpg">
<img src="./img/banqueD/261.jpg">
<img src="./img/banqueD/262.jpg">
<img src="./img/banqueD/263.jpg">
<img src="./img/banqueD/264.jpg">
<img src="./img/banqueD/265.jpg">
<img src="./img/banqueD/266.jpg">
<img src="./img/banqueD/267.jpg">
<img src="./img/banqueD/1.png">
<img src="./img/banqueD/2.png">
<img src="./img/banqueD/3.png">
<img src="./img/banqueD/4.png">
<img src="./img/banqueD/5.png">
<img src="./img/banqueD/6.png">
<img src="./img/banqueD/7.png">
<img src="./img/banqueD/8.png">
<img src="./img/banqueD/9.png">
<img src="./img/banqueD/10.png">
<img src="./img/banqueD/11.png">
<img src="./img/banqueD/12.png">
<img src="./img/banqueD/13.png">
<img src="./img/banqueD/14.png">
<img src="./img/banqueD/15.png">
<img src="./img/banqueD/16.png">
<img src="./img/banqueD/17.png">
<img src="./img/banqueD/18.png">
<img src="./img/banqueD/19.png">
<img src="./img/banqueD/20.png">
<img src="./img/banqueD/21.png">
<img src="./img/banqueD/22.png">
<img src="./img/banqueD/23.png">
<img src="./img/banqueD/24.png">
<img src="./img/banqueD/25.png">
<img src="./img/banqueD/26.png">
<img src="./img/banqueD/27.png">
<img src="./img/banqueD/1.gif">
<img src="./img/banqueD/2.gif">
<img src="./img/banqueD/3.gif">
<img src="./img/banqueD/1.jpeg">
<img src="./img/banqueD/2.jpeg">
<img src="./img/banqueD/3.jpeg">
<img src="./img/banqueD/4.jpeg">
<img src="./img/banqueD/5.jpeg">
<img src="./img/banqueD/6.jpeg">
<img src="./img/banqueD/1.JPG">
<img src="./img/banqueD/2.JPG">
<img src="./img/banqueD/1.PNG">
<img src="./img/banqueE/1.jpg">
<img src="./img/banqueE/2.jpg">
<img src="./img/banqueE/3.jpg">
<img src="./img/banqueE/4.jpg">
<img src="./img/banqueE/5.jpg">
<img src="./img/banqueE/6.jpg">
<img src="./img/banqueE/7.jpg">
<img src="./img/banqueE/8.jpg">
<img src="./img/banqueE/9.jpg">
<img src="./img/banqueE/10.jpg">
<img src="./img/banqueE/11.jpg">
<img src="./img/banqueE/12.jpg">
<img src="./img/banqueE/13.jpg">
<img src="./img/banqueE/14.jpg">
<img src="./img/banqueE/15.jpg">
<img src="./img/banqueE/16.jpg">
<img src="./img/banqueE/17.jpg">
<img src="./img/banqueE/18.jpg">
<img src="./img/banqueE/19.jpg">
<img src="./img/banqueE/20.jpg">
<img src="./img/banqueE/21.jpg">
<img src="./img/banqueE/22.jpg">
<img src="./img/banqueE/23.jpg">
<img src="./img/banqueE/24.jpg">
<img src="./img/banqueE/25.jpg">
<img src="./img/banqueE/26.jpg">
<img src="./img/banqueE/27.jpg">
<img src="./img/banqueE/28.jpg">
<img src="./img/banqueE/29.jpg">
<img src="./img/banqueE/30.jpg">
<img src="./img/banqueE/31.jpg">
<img src="./img/banqueE/32.jpg">
<img src="./img/banqueE/33.jpg">
<img src="./img/banqueE/34.jpg">
<img src="./img/banqueE/35.jpg">
<img src="./img/banqueE/36.jpg">
<img src="./img/banqueE/37.jpg">
<img src="./img/banqueE/38.jpg">
<img src="./img/banqueE/39.jpg">
<img src="./img/banqueE/40.jpg">
<img src="./img/banqueE/41.jpg">
<img src="./img/banqueE/42.jpg">
<img src="./img/banqueE/43.jpg">
<img src="./img/banqueE/44.jpg">
<img src="./img/banqueE/45.jpg">
<img src="./img/banqueE/46.jpg">
<img src="./img/banqueE/47.jpg">
<img src="./img/banqueE/48.jpg">
<img src="./img/banqueE/49.jpg">
<img src="./img/banqueE/50.jpg">
<img src="./img/banqueE/51.jpg">
<img src="./img/banqueE/52.jpg">
<img src="./img/banqueE/53.jpg">
<img src="./img/banqueE/54.jpg">
<img src="./img/banqueE/55.jpg">
<img src="./img/banqueE/56.jpg">
<img src="./img/banqueE/57.jpg">
<img src="./img/banqueE/58.jpg">
<img src="./img/banqueE/59.jpg">
<img src="./img/banqueE/60.jpg">
<img src="./img/banqueE/61.jpg">
<img src="./img/banqueE/62.jpg">
<img src="./img/banqueE/63.jpg">
<img src="./img/banqueE/64.jpg">
<img src="./img/banqueE/65.jpg">
<img src="./img/banqueE/66.jpg">
<img src="./img/banqueE/67.jpg">
<img src="./img/banqueE/68.jpg">
<img src="./img/banqueE/69.jpg">
<img src="./img/banqueE/70.jpg">
<img src="./img/banqueE/71.jpg">
<img src="./img/banqueE/72.jpg">
<img src="./img/banqueE/73.jpg">
<img src="./img/banqueE/74.jpg">
<img src="./img/banqueE/75.jpg">
<img src="./img/banqueE/76.jpg">
<img src="./img/banqueE/77.jpg">
<img src="./img/banqueE/78.jpg">
<img src="./img/banqueE/79.jpg">
<img src="./img/banqueE/80.jpg">
<img src="./img/banqueE/81.jpg">
<img src="./img/banqueE/82.jpg">
<img src="./img/banqueE/83.jpg">
<img src="./img/banqueE/84.jpg">
<img src="./img/banqueE/85.jpg">
<img src="./img/banqueE/86.jpg">
<img src="./img/banqueE/87.jpg">
<img src="./img/banqueE/88.jpg">
<img src="./img/banqueE/89.jpg">
<img src="./img/banqueE/90.jpg">
<img src="./img/banqueE/91.jpg">
<img src="./img/banqueE/92.jpg">
<img src="./img/banqueE/93.jpg">
<img src="./img/banqueE/94.jpg">
<img src="./img/banqueE/95.jpg">
<img src="./img/banqueE/96.jpg">
<img src="./img/banqueE/97.jpg">
<img src="./img/banqueE/98.jpg">
<img src="./img/banqueE/99.jpg">
<img src="./img/banqueE/100.jpg">
<img src="./img/banqueE/101.jpg">
<img src="./img/banqueE/102.jpg">
<img src="./img/banqueE/103.jpg">
<img src="./img/banqueE/104.jpg">
<img src="./img/banqueE/105.jpg">
<img src="./img/banqueE/106.jpg">
<img src="./img/banqueE/107.jpg">
<img src="./img/banqueE/108.jpg">
<img src="./img/banqueE/109.jpg">
<img src="./img/banqueE/110.jpg">
<img src="./img/banqueE/111.jpg">
<img src="./img/banqueE/112.jpg">
<img src="./img/banqueE/113.jpg">
<img src="./img/banqueE/114.jpg">
<img src="./img/banqueE/115.jpg">
<img src="./img/banqueE/116.jpg">
<img src="./img/banqueE/117.jpg">
<img src="./img/banqueE/118.jpg">
<img src="./img/banqueE/119.jpg">
<img src="./img/banqueE/120.jpg">
<img src="./img/banqueE/121.jpg">
<img src="./img/banqueE/122.jpg">
<img src="./img/banqueE/123.jpg">
<img src="./img/banqueE/124.jpg">
<img src="./img/banqueE/125.jpg">
<img src="./img/banqueE/126.jpg">
<img src="./img/banqueE/127.jpg">
<img src="./img/banqueE/128.jpg">
<img src="./img/banqueE/129.jpg">
<img src="./img/banqueE/130.jpg">
<img src="./img/banqueE/131.jpg">
<img src="./img/banqueE/132.jpg">
<img src="./img/banqueE/133.jpg">
<img src="./img/banqueE/134.jpg">
<img src="./img/banqueE/1.gif">
<img src="./img/banqueE/2.gif">
<img src="./img/banqueE/1.png">
<img src="./img/banqueE/2.png">
<img src="./img/banqueE/3.png">
<img src="./img/banqueE/4.png">
<img src="./img/banqueE/5.png">
<img src="./img/banqueE/6.png">
<img src="./img/banqueE/7.png">
<img src="./img/banqueC/263.jpg">
<img src="./img/banqueC/264.jpg">
<img src="./img/banqueA/1.jpg">
<img src="./img/banqueA/2.jpg">
<img src="./img/banqueA/3.jpg">
<img src="./img/banqueA/4.jpg">
<img src="./img/banqueA/5.jpg">
<img src="./img/banqueA/7.jpg">
<img src="./img/banqueA/8.jpg">
<img src="./img/banqueA/9.jpg">
<img src="./img/banqueA/10.jpg">
<img src="./img/banqueA/11.jpg">
<img src="./img/banqueA/13.jpg">
<img src="./img/banqueA/14.jpg">
<img src="./img/banqueA/15.jpg">
<img src="./img/banqueA/16.jpg">
<img src="./img/banqueA/17.jpg">
<img src="./img/banqueA/18.jpg">
<img src="./img/banqueA/19.jpg">
<img src="./img/banqueA/20.jpg">
<img src="./img/banqueB/1.jpg">
<img src="./img/banqueB/2.jpg">
<img src="./img/banqueB/3.jpg">
<img src="./img/banqueB/4.jpg">
<img src="./img/banqueB/5.jpg">
<img src="./img/banqueB/6.jpg">
<img src="./img/banqueB/7.jpg">
<img src="./img/banqueB/8.jpg">
<img src="./img/banqueB/9.jpg">
<img src="./img/banqueB/10.jpg">
<img src="./img/banqueB/11.jpg">
<img src="./img/banqueB/12.jpg">
<img src="./img/banqueB/13.jpg">
<img src="./img/banqueB/14.jpg">
<img src="./img/banqueB/15.jpg">
<img src="./img/banqueB/16.jpg">
<img src="./img/banqueB/17.jpg">
<img src="./img/banqueB/18.jpg">
<img src="./img/banqueB/19.jpg">
<img src="./img/banqueB/20.jpg">
<img src="./img/banqueC/1.jpg">
<img src="./img/banqueC/2.jpg">
<img src="./img/banqueC/3.jpg">
<img src="./img/banqueC/4.jpg">
<img src="./img/banqueC/5.jpg">
<img src="./img/banqueC/6.jpg">
<img src="./img/banqueC/7.jpg">
<img src="./img/banqueC/8.jpg">
<img src="./img/banqueC/9.jpg">
<img src="./img/banqueC/10.jpg">
<img src="./img/banqueC/11.jpg">
<img src="./img/banqueC/12.jpg">
<img src="./img/banqueC/13.jpg">
<img src="./img/banqueC/14.jpg">
<img src="./img/banqueC/15.jpg">
<img src="./img/banqueC/16.jpg">
<img src="./img/banqueC/17.jpg">
<img src="./img/banqueC/18.jpg">
<img src="./img/banqueC/19.jpg">
<img src="./img/banqueC/20.jpg">
<img src="./img/banqueC/21.jpg">
<img src="./img/banqueC/22.jpg">
<img src="./img/banqueC/23.jpg">
<img src="./img/banqueC/24.jpg">
<img src="./img/banqueC/25.jpg">
<img src="./img/banqueC/26.jpg">
<img src="./img/banqueC/27.jpg">
<img src="./img/banqueC/28.jpg">
<img src="./img/banqueC/29.jpg">
<img src="./img/banqueC/30.jpg">
<img src="./img/banqueC/31.jpg">
<img src="./img/banqueC/32.jpg">
<img src="./img/banqueC/33.jpg">
<img src="./img/banqueC/34.jpg">
<img src="./img/banqueC/35.jpg">
<img src="./img/banqueC/36.jpg">
<img src="./img/banqueC/37.jpg">
<img src="./img/banqueC/38.jpg">
<img src="./img/banqueC/39.jpg">
<img src="./img/banqueC/40.jpg">
<img src="./img/banqueC/41.jpg">
<img src="./img/banqueC/42.jpg">
<img src="./img/banqueC/43.jpg">
<img src="./img/banqueC/44.jpg">
<img src="./img/banqueC/45.jpg">
<img src="./img/banqueC/46.jpg">
<img src="./img/banqueC/47.jpg">
<img src="./img/banqueC/48.jpg">
<img src="./img/banqueC/49.jpg">
<img src="./img/banqueC/50.jpg">
<img src="./img/banqueC/51.jpg">
<img src="./img/banqueC/52.jpg">
<img src="./img/banqueC/53.jpg">
<img src="./img/banqueC/54.jpg">
<img src="./img/banqueC/55.jpg">
<img src="./img/banqueC/56.jpg">
<img src="./img/banqueC/57.jpg">
<img src="./img/banqueC/58.jpg">
<img src="./img/banqueC/59.jpg">
<img src="./img/banqueC/60.jpg">
<img src="./img/banqueC/61.jpg">
<img src="./img/banqueC/62.jpg">
<img src="./img/banqueC/63.jpg">
<img src="./img/banqueC/64.jpg">
<img src="./img/banqueC/65.jpg">
<img src="./img/banqueC/66.jpg">
<img src="./img/banqueC/67.jpg">
<img src="./img/banqueC/68.jpg">
<img src="./img/banqueC/69.jpg">
<img src="./img/banqueC/70.jpg">
<img src="./img/banqueC/71.jpg">
<img src="./img/banqueC/72.jpg">
<img src="./img/banqueC/73.jpg">
<img src="./img/banqueC/74.jpg">
<img src="./img/banqueC/75.jpg">
<img src="./img/banqueC/76.jpg">
<img src="./img/banqueC/77.jpg">
<img src="./img/banqueC/78.jpg">
<img src="./img/banqueC/79.jpg">
<img src="./img/banqueC/80.jpg">
<img src="./img/banqueC/81.jpg">
<img src="./img/banqueC/82.jpg">
<img src="./img/banqueC/83.jpg">
<img src="./img/banqueC/84.jpg">
<img src="./img/banqueC/85.jpg">
<img src="./img/banqueC/86.jpg">
<img src="./img/banqueC/87.jpg">
<img src="./img/banqueC/88.jpg">
<img src="./img/banqueC/89.jpg">
<img src="./img/banqueC/90.jpg">
<img src="./img/banqueC/91.jpg">
<img src="./img/banqueC/92.jpg">
<img src="./img/banqueC/93.jpg">
<img src="./img/banqueC/94.jpg">
<img src="./img/banqueC/95.jpg">
<img src="./img/banqueC/96.jpg">
<img src="./img/banqueC/97.jpg">
<img src="./img/banqueC/98.jpg">
<img src="./img/banqueC/99.jpg">
<img src="./img/banqueC/100.jpg">
<img src="./img/banqueC/101.jpg">
<img src="./img/banqueC/102.jpg">
<img src="./img/banqueC/103.jpg">
<img src="./img/banqueC/104.jpg">
<img src="./img/banqueC/105.jpg">
<img src="./img/banqueC/106.jpg">
<img src="./img/banqueC/107.jpg">
<img src="./img/banqueC/108.jpg">
<img src="./img/banqueC/109.jpg">
<img src="./img/banqueC/110.jpg">
<img src="./img/banqueC/111.jpg">
<img src="./img/banqueC/112.jpg">
<img src="./img/banqueC/113.jpg">
<img src="./img/banqueC/114.jpg">
<img src="./img/banqueC/115.jpg">
<img src="./img/banqueC/116.jpg">
<img src="./img/banqueC/117.jpg">
<img src="./img/banqueC/118.jpg">
<img src="./img/banqueC/119.jpg">
<img src="./img/banqueC/120.jpg">
<img src="./img/banqueC/121.jpg">
<img src="./img/banqueC/122.jpg">
<img src="./img/banqueC/123.jpg">
<img src="./img/banqueC/124.jpg">
<img src="./img/banqueC/125.jpg">
<img src="./img/banqueC/126.jpg">
<img src="./img/banqueC/127.jpg">
<img src="./img/banqueC/128.jpg">
<img src="./img/banqueC/129.jpg">
<img src="./img/banqueC/130.jpg">
<img src="./img/banqueC/131.jpg">
<img src="./img/banqueC/132.jpg">
<img src="./img/banqueC/133.jpg">
<img src="./img/banqueC/134.jpg">
<img src="./img/banqueC/135.jpg">
<img src="./img/banqueC/136.jpg">
<img src="./img/banqueC/137.jpg">
<img src="./img/banqueC/138.jpg">
<img src="./img/banqueC/139.jpg">
<img src="./img/banqueC/140.jpg">
<img src="./img/banqueC/141.jpg">
<img src="./img/banqueC/142.jpg">
<img src="./img/banqueC/143.jpg">
<img src="./img/banqueC/144.jpg">
<img src="./img/banqueC/145.jpg">
<img src="./img/banqueC/146.jpg">
<img src="./img/banqueC/147.jpg">
<img src="./img/banqueC/148.jpg">
<img src="./img/banqueC/149.jpg">
<img src="./img/banqueC/150.jpg">
<img src="./img/banqueC/151.jpg">
<img src="./img/banqueC/152.jpg">
<img src="./img/banqueC/153.jpg">
<img src="./img/banqueC/154.jpg">
<img src="./img/banqueC/155.jpg">
<img src="./img/banqueC/156.jpg">
<img src="./img/banqueC/157.jpg">
<img src="./img/banqueC/158.jpg">
<img src="./img/banqueC/159.jpg">
<img src="./img/banqueC/160.jpg">
<img src="./img/banqueC/161.jpg">
<img src="./img/banqueC/162.jpg">
<img src="./img/banqueC/163.jpg">
<img src="./img/banqueC/164.jpg">
<img src="./img/banqueC/165.jpg">
<img src="./img/banqueC/166.jpg">
<img src="./img/banqueC/167.jpg">
<img src="./img/banqueC/168.jpg">
<img src="./img/banqueC/169.jpg">
<img src="./img/banqueC/170.jpg">
<img src="./img/banqueC/171.jpg">
<img src="./img/banqueC/172.jpg">
<img src="./img/banqueC/173.jpg">
<img src="./img/banqueC/174.jpg">
<img src="./img/banqueC/175.jpg">
<img src="./img/banqueC/176.jpg">
<img src="./img/banqueC/177.jpg">
<img src="./img/banqueC/178.jpg">
<img src="./img/banqueC/179.jpg">
<img src="./img/banqueC/180.jpg">
<img src="./img/banqueC/181.jpg">
<img src="./img/banqueC/182.jpg">
<img src="./img/banqueC/183.jpg">
<img src="./img/banqueC/184.jpg">
<img src="./img/banqueC/185.jpg">
<img src="./img/banqueC/186.jpg">
<img src="./img/banqueC/187.jpg">
<img src="./img/banqueC/188.jpg">
<img src="./img/banqueC/189.jpg">
<img src="./img/banqueC/190.jpg">
<img src="./img/banqueC/191.jpg">
<img src="./img/banqueC/192.jpg">
<img src="./img/banqueC/193.jpg">
<img src="./img/banqueC/194.jpg">
<img src="./img/banqueC/195.jpg">
<img src="./img/banqueC/196.jpg">
<img src="./img/banqueC/197.jpg">
<img src="./img/banqueC/198.jpg">
<img src="./img/banqueC/199.jpg">
<img src="./img/banqueC/200.jpg">
<img src="./img/banqueC/201.jpg">
<img src="./img/banqueC/202.jpg">
<img src="./img/banqueC/203.jpg">
<img src="./img/banqueC/204.jpg">
<img src="./img/banqueC/205.jpg">
<img src="./img/banqueC/206.jpg">
<img src="./img/banqueC/207.jpg">
<img src="./img/banqueC/208.jpg">
<img src="./img/banqueC/209.jpg">
<img src="./img/banqueC/210.jpg">
<img src="./img/banqueC/211.jpg">
<img src="./img/banqueC/212.jpg">
<img src="./img/banqueC/213.jpg">
<img src="./img/banqueC/214.jpg">
<img src="./img/banqueC/215.jpg">
<img src="./img/banqueC/216.jpg">
<img src="./img/banqueC/217.jpg">
<img src="./img/banqueC/218.jpg">
<img src="./img/banqueC/219.jpg">
<img src="./img/banqueC/220.jpg">
<img src="./img/banqueC/221.jpg">
<img src="./img/banqueC/222.jpg">
<img src="./img/banqueC/223.jpg">
<img src="./img/banqueC/224.jpg">
<img src="./img/banqueC/225.jpg">
<img src="./img/banqueC/226.jpg">
<img src="./img/banqueC/227.jpg">
<img src="./img/banqueC/228.jpg">
<img src="./img/banqueC/229.jpg">
<img src="./img/banqueC/230.jpg">
<img src="./img/banqueC/231.jpg">
<img src="./img/banqueC/232.jpg">
<img src="./img/banqueC/233.jpg">
<img src="./img/banqueC/234.jpg">
<img src="./img/banqueC/235.jpg">
<img src="./img/banqueC/236.jpg">
<img src="./img/banqueC/237.jpg">
<img src="./img/banqueC/238.jpg">
<img src="./img/banqueC/239.jpg">
<img src="./img/banqueC/240.jpg">
<img src="./img/banqueC/241.jpg">
<img src="./img/banqueC/242.jpg">
<img src="./img/banqueC/243.jpg">
<img src="./img/banqueC/244.jpg">
<img src="./img/banqueC/245.jpg">
<img src="./img/banqueC/246.jpg">
<img src="./img/banqueC/247.jpg">
<img src="./img/banqueC/248.jpg">
<img src="./img/banqueC/249.jpg">
<img src="./img/banqueC/250.jpg">
<img src="./img/banqueC/251.jpg">
<img src="./img/banqueC/252.jpg">
<img src="./img/banqueC/253.jpg">
<img src="./img/banqueC/254.jpg">
<img src="./img/banqueC/255.jpg">
<img src="./img/banqueC/256.jpg">
<img src="./img/banqueC/257.jpg">
<img src="./img/banqueC/258.jpg">
<img src="./img/banqueC/259.jpg">
<img src="./img/banqueC/260.jpg">
<img src="./img/banqueC/261.jpg">
<img src="./img/banqueC/262.jpg">
<img src="./img/banqueC/263.jpg">
<img src="./img/banqueC/264.jpg">
<img src="./img/banqueC/265.jpg">
<img src="./img/banqueD/100.jpg">
<img src="./img/banqueD/101.jpg">
<img src="./img/banqueD/102.jpg">
<img src="./img/banqueD/103.jpg">
<img src="./img/banqueD/104.jpg">
<img src="./img/banqueD/105.jpg">
<img src="./img/banqueD/106.jpg">
<img src="./img/banqueD/107.jpg">
<img src="./img/banqueD/108.jpg">
<img src="./img/banqueD/109.jpg">
<img src="./img/banqueD/110.jpg">
<img src="./img/banqueD/111.jpg">
<img src="./img/banqueD/112.jpg">
<img src="./img/banqueD/113.jpg">
<img src="./img/banqueD/114.jpg">
<img src="./img/banqueD/115.jpg">
<img src="./img/banqueD/116.jpg">
<img src="./img/banqueD/117.jpg">
<img src="./img/banqueD/118.jpg">
<img src="./img/banqueD/119.jpg">
<img src="./img/banqueD/120.jpg">
<img src="./img/banqueD/121.jpg">
<img src="./img/banqueD/122.jpg">
<img src="./img/banqueD/123.jpg">
<img src="./img/banqueD/124.jpg">
<img src="./img/banqueD/125.jpg">
<img src="./img/banqueD/126.jpg">
<img src="./img/banqueD/127.jpg">
<img src="./img/banqueD/128.jpg">
<img src="./img/banqueD/129.jpg">
<img src="./img/banqueD/130.jpg">
<img src="./img/banqueD/131.jpg">
<img src="./img/banqueD/132.jpg">
<img src="./img/banqueD/133.jpg">
<img src="./img/banqueD/134.jpg">
<img src="./img/banqueD/135.jpg">
<img src="./img/banqueD/136.jpg">
<img src="./img/banqueD/137.jpg">
<img src="./img/banqueD/138.jpg">
<img src="./img/banqueD/139.jpg">
<img src="./img/banqueD/140.jpg">
<img src="./img/banqueD/141.jpg">
<img src="./img/banqueD/142.jpg">
<img src="./img/banqueD/143.jpg">
<img src="./img/banqueD/144.jpg">
